sim/pp_top.vcd
$date
	Thu Apr 16 20:52:34 2026
$end
$version
	Icarus Verilog
$end
$timescale
	1ps
$end
$scope module tb_pp_top $end
$var reg 1 ! clk $end
$var reg 1 " rst $end
$var integer 32 # cycle [31:0] $end
$var integer 32 $ err [31:0] $end
$scope module dut $end
$var wire 1 ! clk $end
$var wire 32 % dbg_alu_a [31:0] $end
$var wire 32 & dbg_alu_b [31:0] $end
$var wire 4 ' dbg_alu_sel [3:0] $end
$var wire 32 ( dbg_alu_y [31:0] $end
$var wire 1 ) dbg_br_take $end
$var wire 1 * dbg_flush $end
$var wire 2 + dbg_fwd_a [1:0] $end
$var wire 2 , dbg_fwd_b [1:0] $end
$var wire 7 - dbg_id_ex_opc [6:0] $end
$var wire 32 . dbg_id_ex_pc [31:0] $end
$var wire 32 / dbg_id_imm [31:0] $end
$var wire 5 0 dbg_id_rd [4:0] $end
$var wire 5 1 dbg_id_rs1 [4:0] $end
$var wire 5 2 dbg_id_rs2 [4:0] $end
$var wire 32 3 dbg_if_id_instr [31:0] $end
$var wire 32 4 dbg_if_id_pc [31:0] $end
$var wire 32 5 dbg_instr_if [31:0] $end
$var wire 32 6 dbg_mem_addr [31:0] $end
$var wire 32 7 dbg_mem_rdata [31:0] $end
$var wire 1 8 dbg_mem_re $end
$var wire 32 9 dbg_mem_wdata [31:0] $end
$var wire 1 : dbg_mem_we $end
$var wire 32 ; dbg_pc [31:0] $end
$var wire 1 < dbg_reg_wen $end
$var wire 32 = dbg_rs1_data [31:0] $end
$var wire 32 > dbg_rs2_data [31:0] $end
$var wire 1 ? dbg_stall $end
$var wire 32 @ dbg_wb_data [31:0] $end
$var wire 32 A ex_jalr_target [31:0] $end
$var wire 1 B ex_taken $end
$var wire 1 C id_uses_rs2 $end
$var wire 1 D load_use_stall $end
$var wire 1 " rst $end
$var wire 5 E wb_rd [4:0] $end
$var wire 1 F wb_regwrite $end
$var wire 32 G wb_result [31:0] $end
$var wire 32 H wb_wdata [31:0] $end
$var wire 32 I wb_auipc_val [31:0] $end
$var wire 32 J pc_plus4 [31:0] $end
$var wire 32 K mem_rdata [31:0] $end
$var wire 32 L if_instr [31:0] $end
$var wire 32 M id_rs2_val [31:0] $end
$var wire 5 N id_rs2 [4:0] $end
$var wire 32 O id_rs1_val [31:0] $end
$var wire 5 P id_rs1 [4:0] $end
$var wire 1 Q id_regwrite $end
$var wire 5 R id_rd [4:0] $end
$var wire 7 S id_opcode [6:0] $end
$var wire 1 T id_memwrite $end
$var wire 1 U id_memtoreg $end
$var wire 1 V id_memread $end
$var wire 1 W id_lui $end
$var wire 1 X id_jump $end
$var wire 1 Y id_jalr $end
$var wire 32 Z id_imm [31:0] $end
$var wire 7 [ id_funct7 [6:0] $end
$var wire 3 \ id_funct3 [2:0] $end
$var wire 1 ] id_branch $end
$var wire 1 ^ id_auipc $end
$var wire 1 _ id_alusrc $end
$var wire 2 ` id_aluop [1:0] $end
$var wire 2 a fwd_b [1:0] $end
$var wire 2 b fwd_a [1:0] $end
$var wire 1 c ex_zero $end
$var wire 32 d ex_target [31:0] $end
$var wire 32 e ex_pc4 [31:0] $end
$var wire 32 f ex_op_b [31:0] $end
$var wire 32 g ex_mem_fwd_val [31:0] $end
$var wire 32 h ex_jal_target [31:0] $end
$var wire 32 i ex_branch_target [31:0] $end
$var wire 1 j ex_branch_take $end
$var wire 32 k ex_alu_y [31:0] $end
$var wire 3 l dbg_wb_sel [2:0] $end
$var wire 32 m dbg_pc_next [31:0] $end
$var parameter 32 n NOP $end
$var reg 4 o ex_alu_ctrl [3:0] $end
$var reg 32 p ex_mem_alu_q [31:0] $end
$var reg 1 q ex_mem_auipc_q $end
$var reg 3 r ex_mem_funct3_q [2:0] $end
$var reg 32 s ex_mem_imm_q [31:0] $end
$var reg 1 t ex_mem_jump_q $end
$var reg 1 u ex_mem_lui_q $end
$var reg 1 v ex_mem_memread_q $end
$var reg 1 w ex_mem_memtoreg_q $end
$var reg 1 x ex_mem_memwrite_q $end
$var reg 32 y ex_mem_pc4_q [31:0] $end
$var reg 32 z ex_mem_pc_q [31:0] $end
$var reg 5 { ex_mem_rd_q [4:0] $end
$var reg 1 | ex_mem_regwrite_q $end
$var reg 32 } ex_mem_rs2_store_q [31:0] $end
$var reg 32 ~ ex_op_a_raw [31:0] $end
$var reg 32 !" ex_op_b_raw [31:0] $end
$var reg 2 "" id_ex_aluop_q [1:0] $end
$var reg 1 #" id_ex_alusrc_q $end
$var reg 1 $" id_ex_auipc_q $end
$var reg 1 %" id_ex_branch_q $end
$var reg 3 &" id_ex_funct3_q [2:0] $end
$var reg 7 '" id_ex_funct7_q [6:0] $end
$var reg 32 (" id_ex_imm_q [31:0] $end
$var reg 1 )" id_ex_jalr_q $end
$var reg 1 *" id_ex_jump_q $end
$var reg 1 +" id_ex_lui_q $end
$var reg 1 ," id_ex_memread_q $end
$var reg 1 -" id_ex_memtoreg_q $end
$var reg 1 ." id_ex_memwrite_q $end
$var reg 7 /" id_ex_opcode_q [6:0] $end
$var reg 32 0" id_ex_pc_q [31:0] $end
$var reg 5 1" id_ex_rd_q [4:0] $end
$var reg 1 2" id_ex_regwrite_q $end
$var reg 5 3" id_ex_rs1_q [4:0] $end
$var reg 32 4" id_ex_rs1_val_q [31:0] $end
$var reg 5 5" id_ex_rs2_q [4:0] $end
$var reg 32 6" id_ex_rs2_val_q [31:0] $end
$var reg 32 7" if_id_instr_q [31:0] $end
$var reg 32 8" if_id_pc_q [31:0] $end
$var reg 32 9" mem_wb_alu_q [31:0] $end
$var reg 1 :" mem_wb_auipc_q $end
$var reg 32 ;" mem_wb_imm_q [31:0] $end
$var reg 1 <" mem_wb_jump_q $end
$var reg 1 =" mem_wb_lui_q $end
$var reg 32 >" mem_wb_mem_q [31:0] $end
$var reg 1 ?" mem_wb_memtoreg_q $end
$var reg 32 @" mem_wb_pc4_q [31:0] $end
$var reg 32 A" mem_wb_pc_q [31:0] $end
$var reg 5 B" mem_wb_rd_q [4:0] $end
$var reg 1 C" mem_wb_regwrite_q $end
$var reg 32 D" pc_q [31:0] $end
$scope module u_alu $end
$var wire 32 E" a [31:0] $end
$var wire 4 F" alu_ctrl [3:0] $end
$var wire 32 G" b [31:0] $end
$var wire 1 c zero $end
$var reg 32 H" y [31:0] $end
$upscope $end
$scope module u_bcmp $end
$var wire 32 I" a [31:0] $end
$var wire 32 J" b [31:0] $end
$var wire 3 K" funct3 [2:0] $end
$var reg 1 j take $end
$upscope $end
$scope module u_ctrl $end
$var wire 32 L" instr [31:0] $end
$var wire 7 M" opcode [6:0] $end
$var reg 2 N" aluop [1:0] $end
$var reg 1 _ alusrc $end
$var reg 1 ^ auipc $end
$var reg 1 ] branch $end
$var reg 1 Y jalr $end
$var reg 1 X jump $end
$var reg 1 W lui $end
$var reg 1 V memread $end
$var reg 1 U memtoreg $end
$var reg 1 T memwrite $end
$var reg 1 Q regwrite $end
$upscope $end
$scope module u_dmem $end
$var wire 32 O" a [31:0] $end
$var wire 32 P" addr [31:0] $end
$var wire 1 ! clk $end
$var wire 3 Q" funct3 [2:0] $end
$var wire 1 v memread $end
$var wire 1 x memwrite $end
$var wire 32 R" wdata [31:0] $end
$var wire 32 S" word [31:0] $end
$var parameter 32 T" DEPTH_WORDS $end
$var parameter 128 U" MEMFILE $end
$var reg 32 V" byte_buf [31:0] $end
$var reg 32 W" rdata [31:0] $end
$var integer 32 X" code [31:0] $end
$var integer 32 Y" fd [31:0] $end
$var integer 32 Z" i [31:0] $end
$var integer 32 [" idx [31:0] $end
$upscope $end
$scope module u_fwd $end
$var wire 1 w ex_mem_memtoreg $end
$var wire 5 \" ex_mem_rd [4:0] $end
$var wire 1 | ex_mem_regwrite $end
$var wire 5 ]" id_ex_rs1 [4:0] $end
$var wire 5 ^" id_ex_rs2 [4:0] $end
$var wire 5 _" mem_wb_rd [4:0] $end
$var wire 1 C" mem_wb_regwrite $end
$var reg 2 `" forward_a [1:0] $end
$var reg 2 a" forward_b [1:0] $end
$upscope $end
$scope module u_imem $end
$var wire 32 b" addr [31:0] $end
$var wire 32 c" rdata [31:0] $end
$var parameter 32 d" DEPTH_WORDS $end
$var parameter 136 e" MEMFILE $end
$var reg 32 f" word_buf [31:0] $end
$var integer 32 g" code [31:0] $end
$var integer 32 h" fd [31:0] $end
$var integer 32 i" i [31:0] $end
$var integer 32 j" idx [31:0] $end
$upscope $end
$scope module u_imm $end
$var wire 32 k" instr [31:0] $end
$var wire 7 l" opcode [6:0] $end
$var reg 32 m" imm [31:0] $end
$upscope $end
$scope module u_rf $end
$var wire 1 ! clk $end
$var wire 5 n" ra1 [4:0] $end
$var wire 5 o" ra2 [4:0] $end
$var wire 5 p" wa [4:0] $end
$var wire 32 q" wd [31:0] $end
$var wire 1 F we $end
$var wire 32 r" rd2 [31:0] $end
$var wire 32 s" rd1 [31:0] $end
$var integer 32 t" i [31:0] $end
$upscope $end
$upscope $end
$upscope $end
$enddefinitions $end
$comment Show the parameter values. $end
$dumpall
b110110101100101011011010010111101101001011011100111001101110100011100100101111101101101011001010110110100101110011010000110010101111000 e"
b10000000000 d"
b1101101011001010110110100101111011001000110000101110100011000010101111101101101011001010110110100101110011010000110010101111000 U"
b10000000000 T"
b10011 n
$end
#0
$dumpvars
b100000 t"
bx s"
bx r"
bx q"
bx p"
bx o"
bx n"
bx m"
bx l"
bx k"
b1110 j"
b10000000000 i"
b10000000000000000000000000000011 h"
b1 g"
b10011 f"
bx c"
bx b"
bx a"
bx `"
bx _"
bx ^"
bx ]"
bx \"
b100 ["
b1000000000000 Z"
b10000000000000000000000000000011 Y"
b1 X"
bx W"
b0 V"
bx S"
bx R"
bx Q"
bx P"
bx O"
bx N"
bx M"
bx L"
bx K"
bx J"
bx I"
bx H"
bx G"
bx F"
bx E"
bx D"
xC"
bx B"
bx A"
bx @"
x?"
bx >"
x="
x<"
bx ;"
x:"
bx 9"
bx 8"
bx 7"
bx 6"
bx 5"
bx 4"
bx 3"
x2"
bx 1"
bx 0"
bx /"
x."
x-"
x,"
x+"
x*"
x)"
bx ("
bx '"
bx &"
x%"
x$"
x#"
bx ""
bx !"
bx ~
bx }
x|
bx {
bx z
bx y
xx
xw
xv
xu
xt
bx s
bx r
xq
bx p
bx o
bx m
bx l
bx k
xj
bx i
bx h
bx g
bx f
bx e
bx d
xc
bx b
bx a
bx `
x_
x^
x]
bx \
bx [
bx Z
xY
xX
xW
xV
xU
xT
bx S
bx R
xQ
bx P
bx O
bx N
bx M
bx L
bx K
bx J
bx I
bx H
bx G
xF
bx E
xD
xC
xB
bx0 A
bx @
x?
bx >
bx =
x<
bx ;
x:
bx 9
x8
bx 7
bx 6
bx 5
bx 4
bx 3
bx 2
bx 1
bx 0
bx /
bx .
bx -
bx ,
bx +
x*
x)
bx (
bx '
bx &
bx %
b0 $
b0 #
1"
0!
$end
#5000
b0 @
b0 G
b0 H
b0 q"
0C
b0 g
b100 m
0?
0D
b0 A
1c
b0 (
b0 k
b0 H"
b0 =
b0 O
b0 s"
b0 >
b0 M
b0 r"
0^
0W
0Y
0X
0]
1_
b11 `
b11 N"
0U
0T
0V
1Q
b0 l
b0 7
b0 K
b0 W"
b0 S"
b0 d
0*
0B
1)
1j
b0 '
b0 o
b0 F"
b0 ,
b0 a
b0 a"
b0 +
b0 b
b0 `"
b0 &
b0 f
b0 G"
b0 !"
b0 J"
b0 %
b0 ~
b0 E"
b0 I"
b0 1
b0 P
b0 n"
b0 2
b0 N
b0 o"
b0 0
b0 R
b0 \
b0 [
b10011 S
b10011 M"
b0 /
b0 Z
b0 m"
b10011 l"
b10100000000000010010011 5
b10100000000000010010011 L
b10100000000000010010011 c"
b0 I
b0 A"
b0 ;"
0:"
0="
0<"
0?"
b0 @"
b0 9"
b0 >"
b0 E
b0 p"
b0 B"
b0 _"
0<
0F
0C"
b0 9
b0 }
b0 R"
b0 r
b0 Q"
0:
0x
08
0v
b0 z
b0 s
0q
0u
0t
0w
b0 y
b0 O"
b0 6
b0 p
b0 P"
b0 {
b0 \"
0|
0$"
0+"
0)"
0*"
0%"
0#"
b0 ""
0-"
0."
0,"
02"
b0 -
b0 /"
b0 '"
b0 &"
b0 K"
b0 1"
b0 5"
b0 ^"
b0 3"
b0 ]"
b0 i
b0 h
b0 ("
b0 6"
b0 4"
b100 e
b0 .
b0 0"
b10011 3
b10011 7"
b10011 L"
b10011 k"
b0 4
b0 8"
b100 J
b0 ;
b0 D"
b0 b"
1!
#10000
0!
#15000
1!
#20000
0!
#25000
1!
#30000
0!
#35000
1!
#40000
0!
0"
#45000
b101 2
b101 N
b101 o"
b1 0
b1 R
b101 /
b101 Z
b101 m"
b1000 m
b11100000000000100010011 5
b11100000000000100010011 L
b11100000000000100010011 c"
b100 y
1#"
b11 ""
12"
b10011 -
b10011 /"
b10100000000000010010011 3
b10100000000000010010011 7"
b10100000000000010010011 L"
b10100000000000010010011 k"
b1000 J
b100 ;
b100 D"
b100 b"
b1 #
1!
#50000
0!
#55000
0c
b101 (
b101 k
b101 H"
b101 d
b101 &
b101 f
b101 G"
b100 A
b111 2
b111 N
b111 o"
b10 0
b10 R
b111 /
b111 Z
b111 m"
b1100 m
b1000001000000110110011 5
b1000001000000110110011 L
b1000001000000110110011 c"
b10 #
b100 @"
1|
b1 1"
b101 5"
b101 ^"
b101 i
b101 h
b101 ("
b11100000000000100010011 3
b11100000000000100010011 7"
b11100000000000100010011 L"
b11100000000000100010011 k"
b100 4
b100 8"
b1100 J
b1000 ;
b1000 D"
b1000 b"
1!
#60000
0!
#65000
b101 g
1C
b111 (
b111 k
b111 H"
b1011 d
0_
b10 `
b10 N"
1Q
b111 &
b111 f
b111 G"
b110 A
b1 1
b1 P
b1 n"
b10 2
b10 N
b10 o"
b11 0
b11 R
b110011 S
b110011 M"
b0 /
b0 Z
b0 m"
b110011 l"
b10000 m
b100011000001000110011 5
b100011000001000110011 L
b100011000001000110011 c"
1<
1F
1C"
b101 s
b101 O"
b101 6
b101 p
b101 P"
b1 {
b1 \"
b10 1"
b111 5"
b111 ^"
b111 ("
b1000 e
b1011 i
b1011 h
b100 .
b100 0"
b1000001000000110110011 3
b1000001000000110110011 7"
b1000001000000110110011 L"
b1000001000000110110011 k"
b1000 4
b1000 8"
b10000 J
b1100 ;
b1100 D"
b1100 b"
b11 #
1!
#70000
0!
#75000
b101 >
b101 M
b101 r"
b101 %
b101 ~
b101 E"
b101 I"
b101 @
b101 G
b101 H
b101 q"
b111 g
0)
0j
b111 !"
b111 J"
0c
b1100 (
b1100 k
b1100 H"
b1000 d
b10 ,
b10 a
b10 a"
b1 +
b1 b
b1 `"
b111 &
b111 f
b111 G"
b100 A
b11 1
b11 P
b11 n"
b1 2
b1 N
b1 o"
b100 0
b100 R
b10100 m
b10010001101000101001010110111 5
b10010001101000101001010110111 L
b10010001101000101001010110111 c"
b100 #
b101 I
b101 ;"
b101 9"
b1 E
b1 p"
b1 B"
b1 _"
b100 z
b111 s
b1000 y
b111 O"
b111 6
b111 p
b111 P"
b10 {
b10 \"
0#"
b10 ""
b110011 -
b110011 /"
b11 1"
b10 5"
b10 ^"
b1 3"
b1 ]"
b0 ("
b1100 e
b1000 i
b1000 h
b1000 .
b1000 0"
b100011000001000110011 3
b100011000001000110011 7"
b100011000001000110011 L"
b100011000001000110011 k"
b1100 4
b1100 8"
b10100 J
b10000 ;
b10000 D"
b10000 b"
1!
#80000
0!
#85000
b111 @
b111 G
b111 H
b111 q"
b0 >
b0 M
b0 r"
b1100 g
b101 &
b101 f
b101 G"
b1100 A
b10001 (
b10001 k
b10001 H"
0C
b101 !"
b101 J"
b1100 %
b1100 ~
b1100 E"
b1100 I"
b1100 d
1W
b0 `
b0 N"
1Q
b0 ,
b0 a
b0 a"
b10 +
b10 b
b10 `"
b1000 1
b1000 P
b1000 n"
b11 2
b11 N
b11 o"
b101 0
b101 R
b101 \
b1001 [
b110111 S
b110111 M"
b10010001101000101000000000000 /
b10010001101000101000000000000 Z
b10010001101000101000000000000 m"
b110111 l"
b11000 m
b100101000001100110011 5
b100101000001100110011 L
b100101000001100110011 c"
b100 A"
b1011 I
b111 ;"
b1000 @"
b111 9"
b10 E
b10 p"
b10 B"
b10 _"
b111 9
b111 }
b111 R"
b1000 z
b0 s
b1100 y
b1100 O"
b1100 6
b1100 p
b1100 P"
b11 {
b11 \"
b100 1"
b1 5"
b1 ^"
b11 3"
b11 ]"
b101 6"
b10000 e
b1100 i
b1100 h
b1100 .
b1100 0"
b10010001101000101001010110111 3
b10010001101000101001010110111 7"
b10010001101000101001010110111 L"
b10010001101000101001010110111 k"
b10000 4
b10000 8"
b11000 J
b10100 ;
b10100 D"
b10100 b"
b101 #
1!
#90000
0!
#95000
b1100 @
b1100 G
b1100 H
b1100 q"
b10001 g
0c
b1100 (
b1100 k
b1100 H"
b101 >
b101 M
b101 r"
1C
b0 %
b0 ~
b0 E"
b0 I"
b1100 &
b1100 f
b1100 G"
b10010001101000101000000010000 d
b10 `
b10 N"
0W
1Q
0)
0j
b1 ,
b1 a
b1 a"
b0 +
b0 b
b0 `"
b10010001101000101000000000000 A
b1100 !"
b1100 J"
b101 1
b101 P
b101 n"
b1 2
b1 N
b1 o"
b110 0
b110 R
b0 \
b0 [
b110011 S
b110011 M"
b0 /
b0 Z
b0 m"
b110011 l"
b11100 m
b11000000010000000100011 5
b11000000010000000100011 L
b11000000010000000100011 c"
b110 #
b1000 A"
b1000 I
b0 ;"
b1100 @"
b1100 9"
b11 E
b11 p"
b11 B"
b11 _"
b101 9
b101 }
b101 R"
b1100 z
b10000 y
b10001 O"
b10001 6
b10001 p
b10001 P"
b100 {
b100 \"
1+"
b0 ""
b110111 -
b110111 /"
b1001 '"
b101 &"
b101 K"
b101 1"
b11 5"
b11 ^"
b1000 3"
b1000 ]"
b10010001101000101000000000000 ("
b0 6"
b10100 e
b10010001101000101000000010000 i
b10010001101000101000000010000 h
b10000 .
b10000 0"
b100101000001100110011 3
b100101000001100110011 7"
b100101000001100110011 L"
b100101000001100110011 k"
b10100 4
b10100 8"
b11100 J
b11000 ;
b11000 D"
b11000 b"
1!
#100000
0!
#105000
b10001 @
b10001 G
b10001 H
b10001 q"
b101 &
b101 f
b101 G"
b10010001101000101000000000101 (
b10010001101000101000000000101 k
b10010001101000101000000000101 H"
b0 >
b0 M
b0 r"
b10010001101000101000000000000 g
b101 !"
b101 J"
b10010001101000101000000000000 %
b10010001101000101000000000000 ~
b10010001101000101000000000000 E"
b10010001101000101000000000000 I"
b10100 d
1_
1T
b0 `
b0 N"
0Q
b10 +
b10 b
b10 `"
b0 ,
b0 a
b0 a"
b10010001101000101000000000000 A
b0 1
b0 P
b0 n"
b110 2
b110 N
b110 o"
b0 0
b0 R
b10 \
b100011 S
b100011 M"
b100011 l"
b100000 m
b10001110000011 5
b10001110000011 L
b10001110000011 c"
b1100 I
b1100 A"
b10000 @"
b10001 9"
b100 E
b100 p"
b100 B"
b100 _"
b1100 9
b1100 }
b1100 R"
b101 r
b101 Q"
b10000 z
b10010001101000101000000000000 s
1u
b10100 y
b1100 O"
b1100 6
b1100 p
b1100 P"
b101 {
b101 \"
0+"
b10 ""
b110011 -
b110011 /"
b0 '"
b0 &"
b0 K"
b110 1"
b1 5"
b1 ^"
b101 3"
b101 ]"
b0 ("
b101 6"
b11000 e
b10100 i
b10100 h
b10100 .
b10100 0"
b11000000010000000100011 3
b11000000010000000100011 7"
b11000000010000000100011 L"
b11000000010000000100011 k"
b11000 4
b11000 8"
b100000 J
b11100 ;
b11100 D"
b11100 b"
b111 #
1!
#110000
0!
#115000
b0 A
0C
b11 l
b10010001101000101000000000000 @
b10010001101000101000000000000 G
b10010001101000101000000000000 H
b10010001101000101000000000000 q"
b10010001101000101000000000101 g
1c
b0 (
b0 k
b0 H"
b0 %
b0 ~
b0 E"
b0 I"
b11000 d
1U
1V
1Q
1_
0T
bx S"
b0 &
b0 f
b0 G"
b10 ,
b10 a
b10 a"
b0 +
b0 b
b0 `"
b10010001101000101000000000101 !"
b10010001101000101000000000101 J"
b0 2
b0 N
b0 o"
b111 0
b111 R
b11 S
b11 M"
b11 l"
b100100 m
b100111000010000110011 5
b100111000010000110011 L
b100111000010000110011 c"
b1000 #
b10000 A"
b10010001101000101000000010000 I
b10010001101000101000000000000 ;"
1="
b10100 @"
b1100 9"
b101 E
b101 p"
b101 B"
b101 _"
b101 9
b101 }
b101 R"
b0 r
b0 Q"
b10100 z
b0 s
0u
b11000 y
b10010001101000101000000000101 O"
b10010001101000101000000000101 6
b10010001101000101000000000101 p
b10010001101000101000000000101 P"
b110 {
b110 \"
1#"
b0 ""
1."
02"
b100011 -
b100011 /"
b10 &"
b10 K"
b0 1"
b110 5"
b110 ^"
b0 3"
b0 ]"
b0 6"
b11100 e
b11000 i
b11000 h
b11000 .
b11000 0"
b10001110000011 3
b10001110000011 7"
b10001110000011 L"
b10001110000011 k"
b11100 4
b11100 8"
b100100 J
b100000 ;
b100000 D"
b100000 b"
1!
#120000
0!
#125000
b0 g
1C
b0 l
b10010001101000101000000000101 @
b10010001101000101000000000101 G
b10010001101000101000000000101 H
b10010001101000101000000000101 q"
1?
1D
b0 !"
b0 J"
b11100 d
b101 >
b101 M
b101 r"
b10 `
b10 N"
0_
0U
0V
1Q
b0 S"
b0 ,
b0 a
b0 a"
b111 1
b111 P
b111 n"
b1 2
b1 N
b1 o"
b1000 0
b1000 R
b0 \
b110011 S
b110011 M"
b110011 l"
b101000 m
b10010010111 5
b10010010111 L
b10010010111 c"
b10100 A"
b10100 I
b0 ;"
0="
b11000 @"
b10010001101000101000000000101 9"
b110 E
b110 p"
b110 B"
b110 _"
b10010001101000101000000000101 9
b10010001101000101000000000101 }
b10010001101000101000000000101 R"
b10 r
b10 Q"
1:
1x
b11000 z
b11100 y
b0 O"
b0 6
b0 p
b0 P"
b0 {
b0 \"
0|
1-"
0."
1,"
12"
b11 -
b11 /"
b111 1"
b0 5"
b0 ^"
b100000 e
b11100 i
b11100 h
b11100 .
b11100 0"
b100111000010000110011 3
b100111000010000110011 7"
b100111000010000110011 L"
b100111000010000110011 k"
b100000 4
b100000 8"
b101000 J
b100100 ;
b100100 D"
b100100 b"
b1001 #
1!
#130000
0!
#135000
b0 @
b0 G
b0 H
b0 q"
0?
0D
b0 d
1)
1j
b10010001101000101000000000101 7
b10010001101000101000000000101 K
b10010001101000101000000000101 W"
b1010 #
b11000 I
b11000 A"
b11100 @"
b0 9"
b0 E
b0 p"
b0 B"
b0 _"
0<
0F
0C"
b0 9
b0 }
b0 R"
0:
0x
18
1v
b11100 z
1w
b100000 y
b111 {
b111 \"
1|
0#"
0-"
0,"
02"
b0 -
b0 /"
b0 &"
b0 K"
b0 1"
b100 e
b0 i
b0 h
b0 .
b0 0"
b10010001101000101000000000101 S"
1!
#140000
0!
#145000
b10010001101000101000000000100 A
b10010001101000101000000000101 %
b10010001101000101000000000101 ~
b10010001101000101000000000101 E"
b10010001101000101000000000101 I"
b1 l
b10010001101000101000000000101 @
b10010001101000101000000000101 G
b10010001101000101000000000101 H
b10010001101000101000000000101 q"
0c
b10010001101000101000000001010 (
b10010001101000101000000001010 k
b10010001101000101000000001010 H"
0C
b101 &
b101 f
b101 G"
0)
0j
b100000 d
b0 >
b0 M
b0 r"
1^
b0 `
b0 N"
1Q
b0 7
b0 K
b0 W"
b1 +
b1 b
b1 `"
b101 !"
b101 J"
b0 1
b0 P
b0 n"
b0 2
b0 N
b0 o"
b1001 0
b1001 R
b10111 S
b10111 M"
b10111 l"
b101100 m
b101001000010100110011 5
b101001000010100110011 L
b101001000010100110011 c"
b11100 I
b11100 A"
1?"
b100000 @"
b10010001101000101000000000101 >"
b111 E
b111 p"
b111 B"
b111 _"
1<
1F
1C"
b0 r
b0 Q"
08
0v
b0 z
0w
b100 y
b0 {
b0 \"
0|
b10 ""
12"
b110011 -
b110011 /"
b1000 1"
b1 5"
b1 ^"
b111 3"
b111 ]"
b101 6"
b100100 e
b100000 i
b100000 h
b100000 .
b100000 0"
b10010010111 3
b10010010111 7"
b10010010111 L"
b10010010111 k"
b100100 4
b100100 8"
b101100 J
b101000 ;
b101000 D"
b101000 b"
b1011 #
1!
#150000
0!
#155000
b0 l
b0 @
b0 G
b0 H
b0 q"
b10010001101000101000000001010 g
b0 A
1)
1j
1c
b0 (
b0 k
b0 H"
1C
b0 %
b0 ~
b0 E"
b0 I"
b0 &
b0 f
b0 G"
b100100 d
b101 >
b101 M
b101 r"
b10 `
b10 N"
0^
1Q
bx S"
b0 +
b0 b
b0 `"
b0 !"
b0 J"
b1001 1
b1001 P
b1001 n"
b1 2
b1 N
b1 o"
b1010 0
b1010 R
b110011 S
b110011 M"
b110011 l"
b110000 m
b10011 5
b10011 L
b10011 c"
b1100 #
b0 I
b0 A"
0?"
b100 @"
b0 >"
b0 E
b0 p"
b0 B"
b0 _"
0<
0F
0C"
b101 9
b101 }
b101 R"
b100000 z
b100100 y
b10010001101000101000000001010 O"
b10010001101000101000000001010 6
b10010001101000101000000001010 p
b10010001101000101000000001010 P"
b1000 {
b1000 \"
1|
1$"
b0 ""
b10111 -
b10111 /"
b1001 1"
b0 5"
b0 ^"
b0 3"
b0 ]"
b0 6"
b101000 e
b100100 i
b100100 h
b100100 .
b100100 0"
b101001000010100110011 3
b101001000010100110011 7"
b101001000010100110011 L"
b101001000010100110011 k"
b101000 4
b101000 8"
b110000 J
b101100 ;
b101100 D"
b101100 b"
1!
#160000
0!
#165000
b10010001101000101000000001010 @
b10010001101000101000000001010 G
b10010001101000101000000001010 H
b10010001101000101000000001010 q"
b100100 g
b100100 A
0c
b101001 (
b101001 k
b101001 H"
0C
b100100 %
b100100 ~
b100100 E"
b100100 I"
b101 &
b101 f
b101 G"
0)
0j
b101000 d
b0 >
b0 M
b0 r"
1_
b11 `
b11 N"
1Q
b10010001101000101000000000101 S"
b10 +
b10 b
b10 `"
b101 !"
b101 J"
b0 1
b0 P
b0 n"
b0 2
b0 N
b0 o"
b0 0
b0 R
b10011 S
b10011 M"
b10011 l"
b110100 m
b100000 I
b100000 A"
b100100 @"
b10010001101000101000000001010 9"
b1000 E
b1000 p"
b1000 B"
b1000 _"
1<
1F
1C"
b0 9
b0 }
b0 R"
b100100 z
1q
b101000 y
b0 O"
b0 6
b0 p
b0 P"
b1001 {
b1001 \"
0$"
b10 ""
b110011 -
b110011 /"
b1010 1"
b1 5"
b1 ^"
b1001 3"
b1001 ]"
b101 6"
b101100 e
b101000 i
b101000 h
b101000 .
b101000 0"
b10011 3
b10011 7"
b10011 L"
b10011 k"
b101100 4
b101100 8"
b110100 J
b110000 ;
b110000 D"
b110000 b"
b1101 #
1!
#170000
0!
#175000
b10 l
b100100 @
b100100 G
b100100 H
b100100 q"
b101001 g
b0 A
1)
1j
1c
b0 (
b0 k
b0 H"
b0 %
b0 ~
b0 E"
b0 I"
b101100 d
b0 S"
b0 &
b0 f
b0 G"
b0 +
b0 b
b0 `"
b0 !"
b0 J"
b111000 m
b1110 #
b100100 I
b100100 A"
1:"
b101000 @"
b0 9"
b1001 E
b1001 p"
b1001 B"
b1001 _"
b101 9
b101 }
b101 R"
b101000 z
0q
b101100 y
b101001 O"
b101001 6
b101001 p
b101001 P"
b1010 {
b1010 \"
1#"
b11 ""
b10011 -
b10011 /"
b0 1"
b0 5"
b0 ^"
b0 3"
b0 ]"
b0 6"
b110000 e
b101100 i
b101100 h
b101100 .
b101100 0"
b110000 4
b110000 8"
b111000 J
b110100 ;
b110100 D"
b110100 b"
1!
#180000
0!
#185000
b0 l
b101001 @
b101001 G
b101001 H
b101001 q"
b0 g
b110000 d
b10010001101000101000000000101 S"
b111100 m
b101000 I
b101000 A"
0:"
b101100 @"
b101001 9"
b1010 E
b1010 p"
b1010 B"
b1010 _"
b0 9
b0 }
b0 R"
b101100 z
b110000 y
b0 O"
b0 6
b0 p
b0 P"
b0 {
b0 \"
b110100 e
b110000 i
b110000 h
b110000 .
b110000 0"
b110100 4
b110100 8"
b111100 J
b111000 ;
b111000 D"
b111000 b"
b1111 #
1!
#190000
0!
#195000
b0 @
b0 G
b0 H
b0 q"
b110100 d
b1000000 m
b10000 #
b101100 I
b101100 A"
b110000 @"
b0 9"
b0 E
b0 p"
b0 B"
b0 _"
b110000 z
b110100 y
b111000 e
b110100 i
b110100 h
b110100 .
b110100 0"
b111000 4
b111000 8"
b1000000 J
b111100 ;
b111100 D"
b111100 b"
1!
#200000
0!
#205000
b111000 d
b1000100 m
b110000 I
b110000 A"
b110100 @"
b110100 z
b111000 y
b111100 e
b111000 i
b111000 h
b111000 .
b111000 0"
b111100 4
b111100 8"
b1000100 J
b1000000 ;
b1000000 D"
b1000000 b"
b10001 #
1!
#210000
0!
#215000
b111100 d
b1001000 m
b10010 #
b110100 I
b110100 A"
b111000 @"
b111000 z
b111100 y
b1000000 e
b111100 i
b111100 h
b111100 .
b111100 0"
b1000000 4
b1000000 8"
b1001000 J
b1000100 ;
b1000100 D"
b1000100 b"
1!
#220000
0!
#225000
b1000000 d
b1001100 m
b111000 I
b111000 A"
b111100 @"
b111100 z
b1000000 y
b1000100 e
b1000000 i
b1000000 h
b1000000 .
b1000000 0"
b1000100 4
b1000100 8"
b1001100 J
b1001000 ;
b1001000 D"
b1001000 b"
b10011 #
1!
#230000
0!
#235000
b1000100 d
b1010000 m
b10100 #
b111100 I
b111100 A"
b1000000 @"
b1000000 z
b1000100 y
b1001000 e
b1000100 i
b1000100 h
b1000100 .
b1000100 0"
b1001000 4
b1001000 8"
b1010000 J
b1001100 ;
b1001100 D"
b1001100 b"
1!
#240000
0!
